﻿{
   "CodeGenerationMode": 0,
   "ContextClassName": "IdmDbContext",
   "ContextNamespace": null,
   "DefaultDacpacSchema": null,
   "FilterSchemas": false,
   "IncludeConnectionString": false,
   "ModelNamespace": null,
   "OutputContextPath": "Data",
   "OutputPath": "Models",
   "ProjectRootNamespace": "IT.Audit.Dashboard.EntityFrameworkCore.Idm",
   "Schemas": null,
   "SelectedHandlebarsLanguage": 0,
   "SelectedToBeGenerated": 0,
   "Tables": [
      {
         "Name": "[dbo].[t_Application_Request_Query_Rule]",
         "ObjectType": 0
      },
      {
         "Name": "[dbo].[t_Application_Request_Query_Type]",
         "ObjectType": 0
      },
      {
         "Name": "[dbo].[t_IDM_Approver]",
         "ObjectType": 0
      },
      {
         "Name": "[dbo].[t_IDM_EMEA_Application_Access_Requests]",
         "ObjectType": 0
      },
      {
         "Name": "[dbo].[t_IDM_EMEA_Application_Access_Requests_Archive]",
         "ObjectType": 0
      },
      {
         "Name": "[dbo].[t_IDM_EMEA_Application_Access_Requests_Archive_ALL]",
         "ObjectType": 0
      },
      {
         "Name": "[dbo].[t_IDM_EMEA_Application_Access_Requests_Delta]",
         "ObjectType": 0
      },
      {
         "Name": "[dbo].[t_IDM_Import_Log]",
         "ObjectType": 0
      },
      {
         "Name": "[dbo].[t_IDM_Import_Types]",
         "ObjectType": 0
      },
      {
         "Name": "[dbo].[t_IDM_Product_State]",
         "ObjectType": 0
      },
      {
         "Name": "[dbo].[t_IDM_Product_Types]",
         "ObjectType": 0
      },
      {
         "Name": "[dbo].[t_IDM_Recipient]",
         "ObjectType": 0
      },
      {
         "Name": "[dbo].[t_IDM_Requestor]",
         "ObjectType": 0
      },
      {
         "Name": "[dbo].[t_Report_Request_Parameters]",
         "ObjectType": 0
      },
      {
         "Name": "[dbo].[t_Report_Request_Status_Types]",
         "ObjectType": 0
      },
      {
         "Name": "[dbo].[t_Report_Requests]",
         "ObjectType": 0
      },
      {
         "Name": "[dbo].[t_Requestable_Reports]",
         "ObjectType": 0
      },
      {
         "Name": "[dbo].[xxx_t_IDM_EMEA_Application_Access_Requests_Archive_bak]",
         "ObjectType": 0
      },
      {
         "Name": "[dbo].[xxx_t_Movers_User_Enquiry]",
         "ObjectType": 0
      },
      {
         "Name": "[dbo].[vw_Assigned_Requests_To_AD]",
         "ObjectType": 3
      },
      {
         "Name": "[dbo].[vw_Unique_Assigned_IDM_Products]",
         "ObjectType": 3
      },
      {
         "Name": "[dbo].[vw_Unique_Assigned_IDM_Products_BAK]",
         "ObjectType": 3
      },
      {
         "Name": "[dbo].[stp_IDM_Append_Application_Requests_Delta_Report]",
         "ObjectType": 1
      },
      {
         "Name": "[dbo].[stp_IDM_Append_Unique_Application_Requests_To_Archive]",
         "ObjectType": 1
      },
      {
         "Name": "[dbo].[stp_IDM_Application_Access_Requests_Import_Check]",
         "ObjectType": 1
      },
      {
         "Name": "[dbo].[stp_IDM_Backload_ALL_Application_Requests_To_Archive]",
         "ObjectType": 1
      },
      {
         "Name": "[dbo].[stp_IDM_Backload_ALL_UNIQUE_Application_Requests_To_Archive]",
         "ObjectType": 1
      },
      {
         "Name": "[dbo].[stp_IDM_Refresh_Application_Access_Requests_From_Delta]",
         "ObjectType": 1
      },
      {
         "Name": "[dbo].[stp_Movers_Report]",
         "ObjectType": 1
      },
      {
         "Name": "[dbo].[stp_Refresh_Report_Lookup_Tables]",
         "ObjectType": 1
      },
      {
         "Name": "[dbo].[xxx_stp_User_Access_Request]",
         "ObjectType": 1
      }
   ],
   "UiHint": "EMEUKHC4DB07PD\\SILO.SOX_IDM",
   "UseBoolPropertiesWithoutDefaultSql": false,
   "UseDatabaseNames": false,
   "UseDbContextSplitting": true,
   "UseFluentApiOnly": false,
   "UseHandleBars": false,
   "UseInflector": true,
   "UseLegacyPluralizer": false,
   "UseNoConstructor": true,
   "UseNoDefaultConstructor": true,
   "UseNoNavigations": false,
   "UseNoObjectFilter": true,
   "UseNodaTime": false,
   "UseNullableReferences": true,
   "UseSchemaFolders": false,
   "UseSpatial": false
}